compare/comparator.vcd
$comment
Copyright (C) 1991-2008 Altera Corporation
Your use of Altera Corporation's design tools, logic functions 
and other software and tools, and its AMPP partner logic 
functions, and any output files from any of the foregoing 
(including device programming or simulation files), and any 
associated documentation or information are expressly subject 
to the terms and conditions of the Altera Program License 
Subscription Agreement, Altera MegaCore Function License 
Agreement, or other applicable license agreement, including, 
without limitation, that your use is for the sole purpose of 
programming logic devices manufactured by Altera and sold by 
Altera or its authorized distributors.  Please refer to the 
applicable agreement for further details.
$end

$date 
  06/01/2021 14:24:00 
$end
$version 
 QUARTUS_VCD_EXPORT 1.0 
$end
$timescale
  1 ps
$end
$scope module hestcetcomp $end
$var reg 64 ! x[63:0] $end
$var reg 64 " y[63:0] $end
$var reg 1 # xey $end
$var reg 1 $ xly $end
$var reg 1 % xmy $end
$upscope $end
$enddefinitions $end
#0
$dumpvars
b0 !
b0 "
1#
0$
0%
$end
#20000
b1111000000110000000001110000001111111110000000000000001111111001 !
b1100000000011100000001111111000000000000011110000000000000001101 "
#28055
1%
#28377
0%
#29366
0#
#30279
1$
#40000
b1000000110000000001110011100000011110000001111111100000000000 !
b1111111111000000000000000000010000011111111111111111111111100000 "
#48252
0$
#48377
1%
#50000
b111100000000000000000000000000000000000000000000000011111111111 !
b111100000000000000000000000000000000000000000000000011111111111 "
#60000
b0 !
b0 "
#60706
1$
#60957
0%
#62229
0$
#62661
1$
#64367
1#
#66455
0$
#66813
1$
#69488
0$
#71256
0#
#72204
1$
#72619
0$
#73163
1#
#73972
1%
#74261
0%
#74328
0#
#74668
1#
#75026
1$
#76630
0$
#78420
1%
#79946
0%
